<?xml version="1.0" encoding="UTF-8"?>
<session version="1.0">
<refactoring comment="Convert local variable &apos;lesson2.Tsurukame_BruteForce.main().stdIn&apos; in &apos;lesson2.Tsurukame_BruteForce.main()&apos; to field&#x0D;&#x0A;- Original project: &apos;Algorithm&apos;&#x0D;&#x0A;- Original element: &apos;lesson2.Tsurukame_BruteForce.main().stdIn&apos;&#x0D;&#x0A;- Field name: &apos;stdIn&apos;&#x0D;&#x0A;- Initialize field in method&#x0D;&#x0A;- Declared visibility: &apos;private&apos;&#x0D;&#x0A;- Declare field &apos;static&apos;" description="Convert local variable &apos;stdIn&apos; to field" final="false" flags="2" id="org.eclipse.jdt.ui.promote.temp" initialize="1" input="/src&lt;lesson2{Tsurukame_BruteForce.java" name="stdIn" selection="225 30" stamp="1474823746171" static="true" version="1.0" visibility="2"/>
</session>